{
  "type": "service_account",
  "project_id": "pimba-backend",
  "private_key_id": "30fc8c276b9675c6e36e21a5eeccab95a8790a6b",
  "private_key": "-----BEGIN PRIVATE KEY-----\nMIIEvQIBADANBgkqhkiG9w0BAQEFAASCBKcwggSjAgEAAoIBAQC3wwoWFM9NBOnK\n1aQwN7nY6623kCO4AnROyo0AmSmr7/2QmVmRDyr6hj7Zz6gFJMOLhj/NMw8nGiay\n3zD5Gbh1Eh4iBMw/5XkwuFxPHWVwrqkat82g6yJmL3eiC/I6hPGBvdyKglfdy7Gt\nrBFFeTO2SpeNYHTjMB/wko0QvvCW/HTdKs8fpNfTpG8Cbvi0ihCdGMolJjLGeQZg\nUrd23+ZvdEDL+mAqVaQXzZ7ViIE3XvSInXEeSOhHpgfAHdmFG4Eydt81p2vx9CEC\n5gRgqRn7BQpNCvf0d/eu03qv5OG1IpvDEnxirTc1JXkYG34UfgBnDMAsh4fcUxsK\nmbmtU5NLAgMBAAECggEAQnTJsASkl7EAL/elYj60+mr5Lxp0oHZaw6fi6GV7uY+Y\nPvQGfTxkCagFENZVaE7MXSgW6MnfX//IIQYwetW/bK85sInVqAIAGwuBbqct6Vtx\nEpWISvrePOBLvpHdbyZnBMm5+Wl8B11EC4/fyyUy+2jseBd7DjJ4SpNlarny3lcf\ntx+D4KdKLx+fPIEjBRbUijmX/0mCjXNm5MrvuBJpz3nfau2GFC5dzeXqdnj9pScd\nqBosVO26GlZhkje2pGmeWZVLJ9oEIM+7KnE6EyBQpRS23+XcX5ONwnVFr/SJjN6H\nuAAlxRyCCETLCTRBH03aEpi7FvAHkh1I0s3Pb0ayWQKBgQDZrym+sm1/TvfhWVhT\nIDcy9yD4cc7kAzfYq0fqWaoivkmB7oFNzUtsAEPFVrtcQii6TKx+ntzeXRx9HmC0\nEvaiOhlO69OPoDFDeH4p5C8gLH0c//J/2DVKo38E1GA58oppmhhlfXJDnT+FDRCu\njeBPeFirErFL/j9msBmxkyNdZQKBgQDYG1ZOtyug0TayfchEc8f80fA7+aQKlfRp\nFFfiU9+lwJKtGWjb6CTou4ETOUTXpB5m6p7dL5Fg1T4pJOqvj1N93WuWIVp/ieWP\nJ3vXSQanTXwZn2+s5u+AugdZS+yXEV31zAtoAofw8Ewj9RoO91wJhPCdrN9rkzGP\nTejremS67wKBgE0zC7Dvglml3c7zapmAUVMnxW+WnPLMGWAjzktUJTxRE6yaswyu\ng9L3fRFdIvEjHWKEkqANIvNRPis5PL5gA0uhIxyUEeFbxFzTPJsKq5PTc0N3mb6x\nJKUluoQx9TZXx7KPzZsglAdamw5KheIBus00Nu3koS/8KOv4BASv09jpAoGBAMnP\n7a+g2vtZpWzWjflu7mopW+GGZi0EkLS4rMHNdeQCjHdebVA/4If+4rEjICkJOOL/\nY9BHJcp6GYyuzwOYI249IsWW7D6CdoBTbRFFPxNqBuSewdmD6FIcZ9R6VL1XGJn8\nLQK6qlzU6yYBNI6ZbbfuEA4PbK23Teb36PZO3Fa9AoGAJc6wYKmiAYLjsZN+es1V\nuYbcD2qBBuC5KERYcDdMEdvNHAE61ytzXkLtkfED/fOasaTUzSNDCdtn9wYArTz0\noNSSXoMnVIQ8NyvDGErbDh7Q//EPNdHf426sb5WtnbQ2Btl2zYN1U4AZO7UUNMHy\nYmcMTKo3ti7QkcgMPrFp0rk=\n-----END PRIVATE KEY-----\n",
  "client_email": "firebase-pimba@pimba-backend.iam.gserviceaccount.com",
  "client_id": "111787310294267973787",
  "auth_uri": "https://accounts.google.com/o/oauth2/auth",
  "token_uri": "https://accounts.google.com/o/oauth2/token",
  "auth_provider_x509_cert_url": "https://www.googleapis.com/oauth2/v1/certs",
  "client_x509_cert_url": "https://www.googleapis.com/robot/v1/metadata/x509/firebase-pimba%40pimba-backend.iam.gserviceaccount.com"
}
